Primeiro .qmd
…
Vamos fazer uma análise exploratória da expectativa média por continente ao longo do tempo. Para isso, vamos:

Agrupar as observações por continente e ano;

Sumarizar a variável lifeExp.

exp_media <- 
  df |> 
  group_by(continent, year) |> 
  summarise(expectativa_media = mean(lifeExp)) |> 
  mutate(expectativa_media = round(expectativa_media, 2))

exp_media

# A tibble: 60 × 3
# Groups:   continent [5]
   continent  year expectativa_media
   <fct>     <int>             <dbl>
 1 Africa     1952              39.1
 2 Africa     1957              41.3
 3 Africa     1962              43.3
 4 Africa     1967              45.3
 5 Africa     1972              47.4
 6 Africa     1977              49.6
 7 Africa     1982              51.6
 8 Africa     1987              53.3
 9 Africa     1992              53.6
10 Africa     1997              53.6
# ℹ 50 more rows
…
